









    _/_/_/    _/_/_/      _/_/    _/_/_/  _/      _/  _/_/_/_/  _/    _/    _/_/_/  _/    _/
   _/    _/  _/    _/  _/    _/    _/    _/_/    _/  _/        _/    _/  _/        _/  _/
  _/_/_/    _/_/_/    _/_/_/_/    _/    _/  _/  _/  _/_/_/    _/    _/  _/        _/_/
 _/    _/  _/    _/  _/    _/    _/    _/    _/_/  _/        _/    _/  _/        _/  _/
_/_/_/    _/    _/  _/    _/  _/_/_/  _/      _/  _/          _/_/      _/_/_/  _/    _/
                                                                    ___ __ _  ___ ________
															       / -_)  ' \/ _ `/ __(_-<
																   \__/_/_/_/\_,_/\__/___/
